<?xml version="1.0" encoding="UTF-8"?>
<svg width="119px" height="94px" viewBox="0 0 119 94" version="1.1" xmlns="http://www.w3.org/2000/svg" xmlns:xlink="http://www.w3.org/1999/xlink">
    <!-- Generator: Sketch 41.2 (35397) - http://www.bohemiancoding.com/sketch -->
    <title>megaphone-2</title>
    <desc>Created with Sketch.</desc>
    <defs></defs>
    <g id="Page-1" stroke="none" stroke-width="1" fill="none" fill-rule="evenodd">
        <g id="Home-Page" transform="translate(-369.000000, -829.000000)" fill="#33C6F3">
            <g id="megaphone-2" transform="translate(369.000000, 829.000000)">
                <g id="Layer_1">
                    <g id="Group">
                        <path d="M111.537099,12.1012139 C106.701942,4.31067164 100.180138,0.0198756219 93.1735205,0.0198756219 C88.9681579,0.0198756219 84.9379318,1.56713433 81.3417193,4.48744776 C68.3410273,8.98331343 47.7885906,14.5283781 23.1013099,15.7052488 C10.1474756,16.3225622 0,27.0460448 0,40.118592 C0,52.6797512 9.36968421,63.0704925 21.5958324,64.4119801 L21.5958324,82.9846965 C21.5958324,89.0479303 26.4892144,93.9803582 32.5039337,93.9803582 C38.518653,93.9803582 43.4120351,89.0476965 43.4120351,82.9846965 L43.4120351,80.0996915 C49.2479064,79.3011592 53.8091092,74.405209 54.1366491,68.3882736 C65.0568129,70.5776318 74.3063372,73.3164925 81.3424152,75.7497363 C84.9383957,78.6698159 88.9686218,80.2170746 93.1737524,80.2170746 C100.18037,80.2170746 106.702173,75.9267463 111.537331,68.1359701 C116.200368,60.6232189 118.768263,50.6730149 118.768263,40.1183582 C118.768031,29.5641692 116.200136,19.6139652 111.537099,12.1012139 Z M39.634655,78.3134577 L39.634655,82.9846965 C39.634655,86.9481294 36.4355731,90.1728905 32.5037018,90.1728905 C28.5718304,90.1728905 25.3727485,86.9481294 25.3727485,82.9846965 L25.3727485,64.6549303 C25.9334172,64.6881343 26.4952456,64.7241443 27.057306,64.7622587 C27.0918694,64.764597 27.1268967,64.7664677 27.16146,64.7690398 C27.7314074,64.8078557 28.3018187,64.8494776 28.8729259,64.893204 C28.9026179,64.8955423 28.9323099,64.8978806 28.9620019,64.8999851 C32.5104288,65.173801 36.0799649,65.5427861 39.634191,66.0034328 L39.634191,78.3134577 L39.634655,78.3134577 L39.634655,78.3134577 Z M50.3789864,67.695199 C50.3789864,71.9216915 47.3784698,75.4553433 43.4118031,76.2452239 L43.4118031,66.5309552 C45.7377544,66.8753881 48.0695049,67.2605075 50.3789864,67.6807015 L50.3789864,67.695199 Z M25.9211228,60.8741194 C25.8782086,60.8715473 25.8355263,60.8687413 25.7926121,60.8661692 C24.9591481,60.8161294 24.1229006,60.7691294 23.2799259,60.7291443 C12.3439883,60.2074677 3.77714815,51.1544726 3.77714815,40.1183582 C3.77714815,29.0822438 12.3439883,20.0292488 23.2799259,19.5082736 C44.6134016,18.4913433 62.9164366,14.269995 76.0572378,10.2174726 C75.0054912,11.6950498 74.040037,13.3031045 73.1657466,15.0191891 C73.1590195,15.0322836 73.1522924,15.0456119 73.1457973,15.0587065 C67.7597135,25.7167164 66.4671832,37.9023433 68.2946335,49.6366766 C69.1227622,54.9528209 70.7020058,60.3697463 73.1416218,65.1712289 C73.1499727,65.1878308 73.1583236,65.2044328 73.1664425,65.220801 C74.040501,66.9357164 75.0054912,68.5428358 76.0567739,70.0197114 C63.4627232,66.1355473 46.1237505,62.0982239 25.9211228,60.8741194 Z M108.335234,66.1168408 C104.2157,72.7541294 98.8310078,76.4098408 93.1735205,76.4098408 C89.829922,76.4098408 86.5818947,75.1324229 83.6338031,72.7178856 C83.5932086,72.6774328 83.5509903,72.6386169 83.5064522,72.6016716 C82.8052105,72.0175622 82.1287895,71.379204 81.4788129,70.6905721 C81.4760292,70.6877662 81.4734776,70.6849602 81.470694,70.6819204 C81.2978772,70.4988308 81.12854,70.3096617 80.9594347,70.1193234 C79.9209103,68.9394129 78.934347,67.6035373 78.011575,66.116607 C68.8112281,51.2931343 68.7998616,28.96299 78.011575,14.1201095 C78.9304035,12.6394925 79.9127914,11.3085274 80.9464444,10.1321244 C81.7574074,9.21784577 82.6108207,8.38143284 83.5062203,7.63574627 C83.5509903,7.59833333 83.5936725,7.55904975 83.634499,7.51836318 C86.5823587,5.10429353 89.829922,3.82687562 93.1735205,3.82687562 C98.8310078,3.82687562 104.215468,7.48235323 108.335234,14.1198756 C112.627353,21.0351891 114.991115,30.2682338 114.991115,40.1181244 C114.991115,49.9680149 112.627121,59.2015274 108.335234,66.1168408 Z" id="Shape"></path>
                        <path d="M93.1737524,11.4425124 C89.8695887,11.4425124 86.2429883,14.567194 83.4728168,19.800796 C81.9142183,22.7454279 80.7307135,26.1581891 79.9582573,29.8356468 C79.9406277,29.8929353 79.9253177,29.951393 79.9130234,30.0112537 C78.5509025,36.6359154 78.5534542,43.6005672 79.9130234,50.2266318 C79.9253177,50.2864925 79.9408596,50.3449502 79.9584893,50.4024726 C80.7307135,54.0796965 81.9139864,57.4924577 83.4728168,60.4370896 C86.2429883,65.6706915 89.8695887,68.7953731 93.1737524,68.7953731 C96.4779162,68.7953731 100.104285,65.6706915 102.874456,60.4368557 C105.816517,54.8786965 107.436819,47.6631443 107.436819,40.1188259 C107.436819,32.5747413 105.816517,25.3591891 102.874456,19.800796 C100.104285,14.5667264 96.4776842,11.4425124 93.1737524,11.4425124 Z M83.3269084,47.9353234 C83.0313801,46.1836965 82.8400058,44.3799254 82.749306,42.5422488 C82.7386355,42.3224478 82.7284288,42.1028806 82.7205419,41.8800398 C82.7147427,41.7168259 82.7098713,41.5533781 82.7056959,41.3894627 C82.6954893,40.9748806 82.6878343,40.5579602 82.6876023,40.1330896 L82.6876023,40.1188259 L82.6876023,40.1045622 C82.6876023,39.6796915 82.6954893,39.2625373 82.7056959,38.8484229 C82.7098713,38.6845075 82.7147427,38.5210597 82.7205419,38.3576119 C82.7281969,38.135005 82.7386355,37.9156716 82.749306,37.6961045 C82.8400058,35.8584279 83.0313801,34.0541891 83.3269084,32.3025622 L88.2332807,32.3025622 C86.1979864,36.3620995 86.1680624,41.6071592 87.4536335,45.8967861 C87.6619415,46.5914975 87.9087563,47.2747512 88.193614,47.941403 C87.7303723,47.9271393 83.3491774,48.0695423 83.3269084,47.9353234 Z M93.1737524,64.9876716 C90.9686569,64.9876716 86.4552398,60.4085622 84.1355517,51.7425572 L93.1732885,51.7425572 L93.1732885,51.7425572 L93.1737524,51.7425572 C96.9154094,51.7425572 99.736846,46.7451244 99.736846,40.1183582 C99.736846,33.491592 96.9154094,28.4941592 93.1737524,28.4941592 C93.1716647,28.4941592 93.169809,28.494393 93.1677212,28.494393 L84.1355517,28.494393 C86.4552398,19.8283881 90.9686569,15.2492786 93.1737524,15.2492786 C96.2169513,15.2492786 103.659903,23.9639204 103.659903,40.1181244 C103.659439,56.2730299 96.2169513,64.9876716 93.1737524,64.9876716 Z M90.387575,40.118592 C90.387575,34.6544328 92.5017388,32.3023284 93.1732885,32.3020945 L93.1751442,32.3020945 C93.8483177,32.3053682 95.9596979,34.6577065 95.9596979,40.118592 C95.9596979,45.5834527 93.8453021,47.9353234 93.1737524,47.9353234 C92.5019708,47.9350896 90.387575,45.5829851 90.387575,40.118592 Z" id="Shape"></path>
                    </g>
                </g>
            </g>
        </g>
    </g>
</svg>